{
  "name": "ui",
  "$schema": "../../node_modules/nx/schemas/project-schema.json",
  "projectType": "library",
  "sourceRoot": "libs/ui/src",
  "prefix": "nx-stack-typescript",
  "targets": {
    "test": {
      "executor": "@nrwl/jest:jest",
      "outputs": ["{workspaceRoot}/coverage/{projectRoot}"],
      "options": {
        "jestConfig": "libs/ui/jest.config.ts",
        "passWithNoTests": true
      }
    },
    "lint": {
      "executor": "@nrwl/linter:eslint",
      "options": {
        "lintFilePatterns": ["libs/ui/**/*.ts", "libs/ui/**/*.html"]
      }
    }
  },
  "tags": []
}
